<mxfile host="www.draw.io" modified="2019-12-10T11:26:31.124Z" agent="Mozilla/5.0 (Windows NT 10.0; Win64; x64; rv:71.0) Gecko/20100101 Firefox/71.0" etag="C5zp3lYxOak7G2q9hXWe" version="12.3.9" type="gitlab" pages="1">
  <diagram id="AOPR9Wd0oclXqOA59Yzd" name="Page-1">
    <mxGraphModel dx="1088" dy="575" grid="1" gridSize="10" guides="1" tooltips="1" connect="1" arrows="1" fold="1" page="1" pageScale="1" pageWidth="827" pageHeight="1169" math="0" shadow="0">
      <root>
        <mxCell id="0"/>
        <mxCell id="1" parent="0"/>
        <mxCell id="aT3Ugjjn49D5waDCnzq0-1" style="edgeStyle=orthogonalEdgeStyle;rounded=0;orthogonalLoop=1;jettySize=auto;html=1;exitX=0.75;exitY=0.1;exitDx=0;exitDy=0;exitPerimeter=0;entryX=0;entryY=0.5;entryDx=0;entryDy=0;" edge="1" parent="1" source="aT3Ugjjn49D5waDCnzq0-3" target="aT3Ugjjn49D5waDCnzq0-39">
          <mxGeometry relative="1" as="geometry"/>
        </mxCell>
        <mxCell id="aT3Ugjjn49D5waDCnzq0-2" style="edgeStyle=orthogonalEdgeStyle;rounded=0;orthogonalLoop=1;jettySize=auto;html=1;exitX=0.75;exitY=0.1;exitDx=0;exitDy=0;exitPerimeter=0;entryX=0;entryY=0.5;entryDx=0;entryDy=0;" edge="1" parent="1" source="aT3Ugjjn49D5waDCnzq0-3" target="aT3Ugjjn49D5waDCnzq0-41">
          <mxGeometry relative="1" as="geometry"/>
        </mxCell>
        <mxCell id="aT3Ugjjn49D5waDCnzq0-3" value="Actor" style="shape=umlActor;verticalLabelPosition=bottom;labelBackgroundColor=#ffffff;verticalAlign=top;html=1;outlineConnect=0;" vertex="1" parent="1">
          <mxGeometry x="50" y="129" width="30" height="60" as="geometry"/>
        </mxCell>
        <mxCell id="aT3Ugjjn49D5waDCnzq0-4" style="edgeStyle=orthogonalEdgeStyle;rounded=0;orthogonalLoop=1;jettySize=auto;html=1;exitX=1;exitY=0.5;exitDx=0;exitDy=0;entryX=0.5;entryY=0;entryDx=0;entryDy=0;" edge="1" parent="1" source="aT3Ugjjn49D5waDCnzq0-6" target="aT3Ugjjn49D5waDCnzq0-18">
          <mxGeometry relative="1" as="geometry"/>
        </mxCell>
        <mxCell id="aT3Ugjjn49D5waDCnzq0-5" style="edgeStyle=orthogonalEdgeStyle;rounded=0;orthogonalLoop=1;jettySize=auto;html=1;exitX=1;exitY=0.5;exitDx=0;exitDy=0;entryX=0.5;entryY=0;entryDx=0;entryDy=0;" edge="1" parent="1" source="aT3Ugjjn49D5waDCnzq0-6" target="aT3Ugjjn49D5waDCnzq0-20">
          <mxGeometry relative="1" as="geometry"/>
        </mxCell>
        <mxCell id="aT3Ugjjn49D5waDCnzq0-6" value="ЭЭГ-регистратор" style="rounded=0;whiteSpace=wrap;html=1;" vertex="1" parent="1">
          <mxGeometry x="260" y="32" width="120" height="60" as="geometry"/>
        </mxCell>
        <mxCell id="aT3Ugjjn49D5waDCnzq0-7" style="edgeStyle=orthogonalEdgeStyle;rounded=0;orthogonalLoop=1;jettySize=auto;html=1;exitX=1;exitY=0.5;exitDx=0;exitDy=0;entryX=0.5;entryY=0;entryDx=0;entryDy=0;" edge="1" parent="1" source="aT3Ugjjn49D5waDCnzq0-8" target="aT3Ugjjn49D5waDCnzq0-18">
          <mxGeometry relative="1" as="geometry">
            <mxPoint x="460" y="210" as="targetPoint"/>
          </mxGeometry>
        </mxCell>
        <mxCell id="aT3Ugjjn49D5waDCnzq0-8" value="Измеритель импеданса" style="rounded=0;whiteSpace=wrap;html=1;" vertex="1" parent="1">
          <mxGeometry x="260" y="99" width="120" height="60" as="geometry"/>
        </mxCell>
        <mxCell id="aT3Ugjjn49D5waDCnzq0-9" style="edgeStyle=orthogonalEdgeStyle;rounded=0;orthogonalLoop=1;jettySize=auto;html=1;entryX=0.25;entryY=0.1;entryDx=0;entryDy=0;entryPerimeter=0;" edge="1" parent="1" source="aT3Ugjjn49D5waDCnzq0-10" target="aT3Ugjjn49D5waDCnzq0-3">
          <mxGeometry relative="1" as="geometry">
            <mxPoint x="10" y="130" as="targetPoint"/>
            <Array as="points">
              <mxPoint x="10" y="320"/>
              <mxPoint x="10" y="135"/>
            </Array>
          </mxGeometry>
        </mxCell>
        <mxCell id="aT3Ugjjn49D5waDCnzq0-10" value="Фотостимулятор" style="rounded=0;whiteSpace=wrap;html=1;" vertex="1" parent="1">
          <mxGeometry x="220" y="290" width="120" height="60" as="geometry"/>
        </mxCell>
        <mxCell id="aT3Ugjjn49D5waDCnzq0-11" style="edgeStyle=orthogonalEdgeStyle;rounded=0;orthogonalLoop=1;jettySize=auto;html=1;entryX=0.25;entryY=0.1;entryDx=0;entryDy=0;entryPerimeter=0;" edge="1" parent="1" source="aT3Ugjjn49D5waDCnzq0-12" target="aT3Ugjjn49D5waDCnzq0-3">
          <mxGeometry relative="1" as="geometry">
            <Array as="points">
              <mxPoint x="10" y="400"/>
              <mxPoint x="10" y="135"/>
            </Array>
          </mxGeometry>
        </mxCell>
        <mxCell id="aT3Ugjjn49D5waDCnzq0-12" value="Фоностимулятор" style="rounded=0;whiteSpace=wrap;html=1;" vertex="1" parent="1">
          <mxGeometry x="220" y="370" width="120" height="60" as="geometry"/>
        </mxCell>
        <mxCell id="aT3Ugjjn49D5waDCnzq0-13" style="edgeStyle=orthogonalEdgeStyle;rounded=0;orthogonalLoop=1;jettySize=auto;html=1;exitX=1;exitY=0.5;exitDx=0;exitDy=0;entryX=0.5;entryY=0;entryDx=0;entryDy=0;" edge="1" parent="1" source="aT3Ugjjn49D5waDCnzq0-14" target="aT3Ugjjn49D5waDCnzq0-18">
          <mxGeometry relative="1" as="geometry"/>
        </mxCell>
        <mxCell id="aT3Ugjjn49D5waDCnzq0-14" value="Регистратор ритма сердца" style="rounded=0;whiteSpace=wrap;html=1;" vertex="1" parent="1">
          <mxGeometry x="260" y="167" width="120" height="60" as="geometry"/>
        </mxCell>
        <mxCell id="aT3Ugjjn49D5waDCnzq0-15" style="edgeStyle=orthogonalEdgeStyle;rounded=0;orthogonalLoop=1;jettySize=auto;html=1;exitX=0.5;exitY=1;exitDx=0;exitDy=0;entryX=1;entryY=0.5;entryDx=0;entryDy=0;" edge="1" parent="1" source="aT3Ugjjn49D5waDCnzq0-18" target="aT3Ugjjn49D5waDCnzq0-10">
          <mxGeometry relative="1" as="geometry"/>
        </mxCell>
        <mxCell id="aT3Ugjjn49D5waDCnzq0-16" style="edgeStyle=orthogonalEdgeStyle;rounded=0;orthogonalLoop=1;jettySize=auto;html=1;entryX=1;entryY=0.5;entryDx=0;entryDy=0;" edge="1" parent="1" source="aT3Ugjjn49D5waDCnzq0-18" target="aT3Ugjjn49D5waDCnzq0-12">
          <mxGeometry relative="1" as="geometry">
            <Array as="points">
              <mxPoint x="460" y="400"/>
            </Array>
          </mxGeometry>
        </mxCell>
        <mxCell id="aT3Ugjjn49D5waDCnzq0-17" style="edgeStyle=orthogonalEdgeStyle;rounded=0;orthogonalLoop=1;jettySize=auto;html=1;exitX=1;exitY=0.5;exitDx=0;exitDy=0;entryX=0;entryY=0.75;entryDx=0;entryDy=0;" edge="1" parent="1" source="aT3Ugjjn49D5waDCnzq0-18" target="aT3Ugjjn49D5waDCnzq0-27">
          <mxGeometry relative="1" as="geometry">
            <Array as="points">
              <mxPoint x="520" y="281"/>
            </Array>
          </mxGeometry>
        </mxCell>
        <mxCell id="aT3Ugjjn49D5waDCnzq0-18" value="Микропроцессор" style="rounded=0;whiteSpace=wrap;html=1;" vertex="1" parent="1">
          <mxGeometry x="400" y="236" width="120" height="60" as="geometry"/>
        </mxCell>
        <mxCell id="aT3Ugjjn49D5waDCnzq0-19" style="edgeStyle=orthogonalEdgeStyle;rounded=0;orthogonalLoop=1;jettySize=auto;html=1;exitX=1;exitY=0.5;exitDx=0;exitDy=0;entryX=0.5;entryY=0;entryDx=0;entryDy=0;" edge="1" parent="1" source="aT3Ugjjn49D5waDCnzq0-20" target="aT3Ugjjn49D5waDCnzq0-27">
          <mxGeometry relative="1" as="geometry"/>
        </mxCell>
        <mxCell id="aT3Ugjjn49D5waDCnzq0-20" value="Память" style="shape=cylinder;whiteSpace=wrap;html=1;boundedLbl=1;backgroundOutline=1;" vertex="1" parent="1">
          <mxGeometry x="500" y="87" width="60" height="80" as="geometry"/>
        </mxCell>
        <mxCell id="aT3Ugjjn49D5waDCnzq0-21" style="edgeStyle=orthogonalEdgeStyle;rounded=0;orthogonalLoop=1;jettySize=auto;html=1;exitX=0.25;exitY=0;exitDx=0;exitDy=0;" edge="1" parent="1" source="aT3Ugjjn49D5waDCnzq0-24">
          <mxGeometry relative="1" as="geometry">
            <mxPoint x="370" y="470" as="targetPoint"/>
          </mxGeometry>
        </mxCell>
        <mxCell id="aT3Ugjjn49D5waDCnzq0-22" style="edgeStyle=orthogonalEdgeStyle;rounded=0;orthogonalLoop=1;jettySize=auto;html=1;exitX=0.5;exitY=0;exitDx=0;exitDy=0;" edge="1" parent="1" source="aT3Ugjjn49D5waDCnzq0-24">
          <mxGeometry relative="1" as="geometry">
            <mxPoint x="400" y="470" as="targetPoint"/>
          </mxGeometry>
        </mxCell>
        <mxCell id="aT3Ugjjn49D5waDCnzq0-23" style="edgeStyle=orthogonalEdgeStyle;rounded=0;orthogonalLoop=1;jettySize=auto;html=1;exitX=0.75;exitY=0;exitDx=0;exitDy=0;" edge="1" parent="1" source="aT3Ugjjn49D5waDCnzq0-24">
          <mxGeometry relative="1" as="geometry">
            <mxPoint x="430" y="470" as="targetPoint"/>
          </mxGeometry>
        </mxCell>
        <mxCell id="aT3Ugjjn49D5waDCnzq0-24" value="Аккумулятор" style="rounded=0;whiteSpace=wrap;html=1;" vertex="1" parent="1">
          <mxGeometry x="340" y="490" width="120" height="60" as="geometry"/>
        </mxCell>
        <mxCell id="aT3Ugjjn49D5waDCnzq0-25" style="edgeStyle=orthogonalEdgeStyle;rounded=0;orthogonalLoop=1;jettySize=auto;html=1;exitX=0;exitY=0.25;exitDx=0;exitDy=0;entryX=1;entryY=0.25;entryDx=0;entryDy=0;" edge="1" parent="1" source="aT3Ugjjn49D5waDCnzq0-27" target="aT3Ugjjn49D5waDCnzq0-18">
          <mxGeometry relative="1" as="geometry"/>
        </mxCell>
        <mxCell id="aT3Ugjjn49D5waDCnzq0-26" style="edgeStyle=orthogonalEdgeStyle;rounded=0;orthogonalLoop=1;jettySize=auto;html=1;exitX=1;exitY=0.25;exitDx=0;exitDy=0;entryX=0;entryY=0.25;entryDx=0;entryDy=0;" edge="1" parent="1" source="aT3Ugjjn49D5waDCnzq0-27" target="aT3Ugjjn49D5waDCnzq0-31">
          <mxGeometry relative="1" as="geometry"/>
        </mxCell>
        <mxCell id="aT3Ugjjn49D5waDCnzq0-27" value="Беспроводной интерфейс" style="rounded=0;whiteSpace=wrap;html=1;" vertex="1" parent="1">
          <mxGeometry x="590" y="236" width="120" height="60" as="geometry"/>
        </mxCell>
        <mxCell id="aT3Ugjjn49D5waDCnzq0-28" style="edgeStyle=orthogonalEdgeStyle;rounded=0;orthogonalLoop=1;jettySize=auto;html=1;exitX=0;exitY=0.75;exitDx=0;exitDy=0;entryX=1;entryY=0.75;entryDx=0;entryDy=0;" edge="1" parent="1" source="aT3Ugjjn49D5waDCnzq0-31" target="aT3Ugjjn49D5waDCnzq0-27">
          <mxGeometry relative="1" as="geometry"/>
        </mxCell>
        <mxCell id="aT3Ugjjn49D5waDCnzq0-48" style="edgeStyle=orthogonalEdgeStyle;rounded=0;orthogonalLoop=1;jettySize=auto;html=1;exitX=1;exitY=0.75;exitDx=0;exitDy=0;entryX=0;entryY=0.75;entryDx=0;entryDy=0;" edge="1" parent="1" source="aT3Ugjjn49D5waDCnzq0-31" target="aT3Ugjjn49D5waDCnzq0-42">
          <mxGeometry relative="1" as="geometry"/>
        </mxCell>
        <mxCell id="aT3Ugjjn49D5waDCnzq0-31" value="Мобильное устройство" style="rounded=0;whiteSpace=wrap;html=1;" vertex="1" parent="1">
          <mxGeometry x="780" y="236" width="120" height="60" as="geometry"/>
        </mxCell>
        <mxCell id="aT3Ugjjn49D5waDCnzq0-33" value="&lt;div&gt;принтер&lt;/div&gt;" style="rounded=0;whiteSpace=wrap;html=1;" vertex="1" parent="1">
          <mxGeometry x="960" y="350" width="120" height="60" as="geometry"/>
        </mxCell>
        <mxCell id="aT3Ugjjn49D5waDCnzq0-34" value="" style="endArrow=none;dashed=1;html=1;" edge="1" parent="1">
          <mxGeometry width="50" height="50" relative="1" as="geometry">
            <mxPoint x="740" y="560" as="sourcePoint"/>
            <mxPoint x="740" y="10" as="targetPoint"/>
          </mxGeometry>
        </mxCell>
        <mxCell id="aT3Ugjjn49D5waDCnzq0-35" value="" style="endArrow=none;dashed=1;html=1;" edge="1" parent="1">
          <mxGeometry width="50" height="50" relative="1" as="geometry">
            <mxPoint x="100" y="565" as="sourcePoint"/>
            <mxPoint x="100" y="15" as="targetPoint"/>
          </mxGeometry>
        </mxCell>
        <mxCell id="aT3Ugjjn49D5waDCnzq0-36" value="&lt;font size=&quot;1&quot;&gt;&lt;i&gt;&lt;b style=&quot;font-size: 26px&quot;&gt;Шлем&lt;/b&gt;&lt;/i&gt;&lt;/font&gt;" style="text;html=1;strokeColor=none;fillColor=none;align=center;verticalAlign=middle;whiteSpace=wrap;rounded=0;" vertex="1" parent="1">
          <mxGeometry x="650" y="510" width="40" height="20" as="geometry"/>
        </mxCell>
        <mxCell id="aT3Ugjjn49D5waDCnzq0-37" style="edgeStyle=orthogonalEdgeStyle;rounded=0;orthogonalLoop=1;jettySize=auto;html=1;exitX=1;exitY=0.5;exitDx=0;exitDy=0;entryX=0;entryY=0.5;entryDx=0;entryDy=0;" edge="1" parent="1" source="aT3Ugjjn49D5waDCnzq0-39" target="aT3Ugjjn49D5waDCnzq0-6">
          <mxGeometry relative="1" as="geometry"/>
        </mxCell>
        <mxCell id="aT3Ugjjn49D5waDCnzq0-38" style="edgeStyle=orthogonalEdgeStyle;rounded=0;orthogonalLoop=1;jettySize=auto;html=1;exitX=1;exitY=0.5;exitDx=0;exitDy=0;entryX=0;entryY=0.5;entryDx=0;entryDy=0;" edge="1" parent="1" source="aT3Ugjjn49D5waDCnzq0-39" target="aT3Ugjjn49D5waDCnzq0-8">
          <mxGeometry relative="1" as="geometry"/>
        </mxCell>
        <mxCell id="aT3Ugjjn49D5waDCnzq0-39" value="Электроды" style="rounded=0;whiteSpace=wrap;html=1;" vertex="1" parent="1">
          <mxGeometry x="140" y="32" width="80" height="60" as="geometry"/>
        </mxCell>
        <mxCell id="aT3Ugjjn49D5waDCnzq0-40" style="edgeStyle=orthogonalEdgeStyle;rounded=0;orthogonalLoop=1;jettySize=auto;html=1;exitX=1;exitY=0.5;exitDx=0;exitDy=0;entryX=0;entryY=0.5;entryDx=0;entryDy=0;" edge="1" parent="1" source="aT3Ugjjn49D5waDCnzq0-41" target="aT3Ugjjn49D5waDCnzq0-14">
          <mxGeometry relative="1" as="geometry"/>
        </mxCell>
        <mxCell id="aT3Ugjjn49D5waDCnzq0-41" value="Электроды" style="rounded=0;whiteSpace=wrap;html=1;" vertex="1" parent="1">
          <mxGeometry x="140" y="167" width="80" height="60" as="geometry"/>
        </mxCell>
        <mxCell id="aT3Ugjjn49D5waDCnzq0-45" style="edgeStyle=orthogonalEdgeStyle;rounded=0;orthogonalLoop=1;jettySize=auto;html=1;exitX=0.5;exitY=0;exitDx=0;exitDy=0;entryX=0.5;entryY=1;entryDx=0;entryDy=0;" edge="1" parent="1" source="aT3Ugjjn49D5waDCnzq0-42" target="aT3Ugjjn49D5waDCnzq0-44">
          <mxGeometry relative="1" as="geometry"/>
        </mxCell>
        <mxCell id="aT3Ugjjn49D5waDCnzq0-46" style="edgeStyle=orthogonalEdgeStyle;rounded=0;orthogonalLoop=1;jettySize=auto;html=1;exitX=0.5;exitY=1;exitDx=0;exitDy=0;entryX=0.5;entryY=0;entryDx=0;entryDy=0;" edge="1" parent="1" source="aT3Ugjjn49D5waDCnzq0-42" target="aT3Ugjjn49D5waDCnzq0-33">
          <mxGeometry relative="1" as="geometry"/>
        </mxCell>
        <mxCell id="aT3Ugjjn49D5waDCnzq0-49" style="edgeStyle=orthogonalEdgeStyle;rounded=0;orthogonalLoop=1;jettySize=auto;html=1;exitX=0;exitY=0.25;exitDx=0;exitDy=0;entryX=1;entryY=0.25;entryDx=0;entryDy=0;" edge="1" parent="1" source="aT3Ugjjn49D5waDCnzq0-42" target="aT3Ugjjn49D5waDCnzq0-31">
          <mxGeometry relative="1" as="geometry"/>
        </mxCell>
        <mxCell id="aT3Ugjjn49D5waDCnzq0-42" value="Персональный компьютер" style="rounded=0;whiteSpace=wrap;html=1;" vertex="1" parent="1">
          <mxGeometry x="960" y="236" width="120" height="60" as="geometry"/>
        </mxCell>
        <mxCell id="aT3Ugjjn49D5waDCnzq0-44" value="Монитор" style="rounded=0;whiteSpace=wrap;html=1;" vertex="1" parent="1">
          <mxGeometry x="960" y="92" width="120" height="60" as="geometry"/>
        </mxCell>
        <mxCell id="aT3Ugjjn49D5waDCnzq0-50" value="" style="endArrow=none;dashed=1;html=1;" edge="1" parent="1">
          <mxGeometry width="50" height="50" relative="1" as="geometry">
            <mxPoint x="933" y="560" as="sourcePoint"/>
            <mxPoint x="933" y="6" as="targetPoint"/>
          </mxGeometry>
        </mxCell>
      </root>
    </mxGraphModel>
  </diagram>
</mxfile>
