<mxfile host="app.diagrams.net" modified="2020-08-25T15:07:14.259Z" agent="5.0 (Windows)" etag="7PtUFBaxUy2qk7ntLRhz" version="13.6.4" type="gitlab">
  <diagram id="hfjHigj6xcwMd_CKPnSu" name="Page-1">
    <mxGraphModel dx="1742" dy="773" grid="1" gridSize="10" guides="1" tooltips="1" connect="1" arrows="1" fold="1" page="1" pageScale="1" pageWidth="827" pageHeight="1169" math="0" shadow="0">
      <root>
        <mxCell id="0" />
        <mxCell id="1" parent="0" />
        <mxCell id="KJcwuW7LsnLvcYnNRt8B-9" style="edgeStyle=orthogonalEdgeStyle;rounded=0;orthogonalLoop=1;jettySize=auto;html=1;exitX=0;exitY=0.75;exitDx=0;exitDy=0;entryX=1;entryY=0.75;entryDx=0;entryDy=0;" edge="1" parent="1" source="KJcwuW7LsnLvcYnNRt8B-1" target="KJcwuW7LsnLvcYnNRt8B-2">
          <mxGeometry relative="1" as="geometry" />
        </mxCell>
        <mxCell id="KJcwuW7LsnLvcYnNRt8B-1" value="&lt;div&gt;ПО Экзоскелета&lt;/div&gt;" style="rounded=0;whiteSpace=wrap;html=1;" vertex="1" parent="1">
          <mxGeometry x="520" y="90" width="120" height="60" as="geometry" />
        </mxCell>
        <mxCell id="KJcwuW7LsnLvcYnNRt8B-5" style="edgeStyle=orthogonalEdgeStyle;rounded=0;orthogonalLoop=1;jettySize=auto;html=1;exitX=0;exitY=0.5;exitDx=0;exitDy=0;entryX=0.25;entryY=0;entryDx=0;entryDy=0;" edge="1" parent="1" source="KJcwuW7LsnLvcYnNRt8B-2" target="KJcwuW7LsnLvcYnNRt8B-4">
          <mxGeometry relative="1" as="geometry">
            <Array as="points">
              <mxPoint x="290" y="110" />
              <mxPoint x="180" y="110" />
            </Array>
          </mxGeometry>
        </mxCell>
        <mxCell id="KJcwuW7LsnLvcYnNRt8B-8" style="edgeStyle=orthogonalEdgeStyle;rounded=0;orthogonalLoop=1;jettySize=auto;html=1;exitX=1;exitY=0.25;exitDx=0;exitDy=0;entryX=0;entryY=0.25;entryDx=0;entryDy=0;" edge="1" parent="1" source="KJcwuW7LsnLvcYnNRt8B-2" target="KJcwuW7LsnLvcYnNRt8B-1">
          <mxGeometry relative="1" as="geometry" />
        </mxCell>
        <mxCell id="KJcwuW7LsnLvcYnNRt8B-2" value="Проводной интерфейс" style="rounded=0;whiteSpace=wrap;html=1;" vertex="1" parent="1">
          <mxGeometry x="290" y="90" width="120" height="60" as="geometry" />
        </mxCell>
        <mxCell id="KJcwuW7LsnLvcYnNRt8B-7" style="edgeStyle=orthogonalEdgeStyle;rounded=0;orthogonalLoop=1;jettySize=auto;html=1;entryX=0;entryY=0.5;entryDx=0;entryDy=0;" edge="1" parent="1" source="KJcwuW7LsnLvcYnNRt8B-4" target="KJcwuW7LsnLvcYnNRt8B-2">
          <mxGeometry relative="1" as="geometry">
            <Array as="points">
              <mxPoint x="210" y="120" />
            </Array>
          </mxGeometry>
        </mxCell>
        <mxCell id="KJcwuW7LsnLvcYnNRt8B-18" style="edgeStyle=orthogonalEdgeStyle;rounded=0;orthogonalLoop=1;jettySize=auto;html=1;exitX=0.5;exitY=1;exitDx=0;exitDy=0;entryX=0.325;entryY=0.017;entryDx=0;entryDy=0;entryPerimeter=0;" edge="1" parent="1" source="KJcwuW7LsnLvcYnNRt8B-4" target="KJcwuW7LsnLvcYnNRt8B-10">
          <mxGeometry relative="1" as="geometry" />
        </mxCell>
        <mxCell id="KJcwuW7LsnLvcYnNRt8B-4" value="&lt;div&gt;Компонент опроса устройств&lt;/div&gt;" style="rounded=0;whiteSpace=wrap;html=1;" vertex="1" parent="1">
          <mxGeometry x="150" y="210" width="120" height="60" as="geometry" />
        </mxCell>
        <mxCell id="KJcwuW7LsnLvcYnNRt8B-16" style="edgeStyle=orthogonalEdgeStyle;rounded=0;orthogonalLoop=1;jettySize=auto;html=1;exitX=0.25;exitY=1;exitDx=0;exitDy=0;entryX=0.25;entryY=0;entryDx=0;entryDy=0;" edge="1" parent="1" source="KJcwuW7LsnLvcYnNRt8B-10" target="KJcwuW7LsnLvcYnNRt8B-12">
          <mxGeometry relative="1" as="geometry" />
        </mxCell>
        <mxCell id="KJcwuW7LsnLvcYnNRt8B-10" value="Компонент настройки устройства" style="rounded=0;whiteSpace=wrap;html=1;" vertex="1" parent="1">
          <mxGeometry x="230" y="340" width="120" height="60" as="geometry" />
        </mxCell>
        <mxCell id="KJcwuW7LsnLvcYnNRt8B-13" style="edgeStyle=orthogonalEdgeStyle;rounded=0;orthogonalLoop=1;jettySize=auto;html=1;" edge="1" parent="1" source="KJcwuW7LsnLvcYnNRt8B-11">
          <mxGeometry relative="1" as="geometry">
            <mxPoint x="290" y="135" as="targetPoint" />
            <Array as="points">
              <mxPoint x="460" y="180" />
              <mxPoint x="250" y="180" />
              <mxPoint x="250" y="135" />
            </Array>
          </mxGeometry>
        </mxCell>
        <mxCell id="KJcwuW7LsnLvcYnNRt8B-11" value="Компонент регистрации данных" style="rounded=0;whiteSpace=wrap;html=1;" vertex="1" parent="1">
          <mxGeometry x="400" y="340" width="120" height="60" as="geometry" />
        </mxCell>
        <mxCell id="KJcwuW7LsnLvcYnNRt8B-15" style="edgeStyle=orthogonalEdgeStyle;rounded=0;orthogonalLoop=1;jettySize=auto;html=1;entryX=0.75;entryY=1;entryDx=0;entryDy=0;" edge="1" parent="1" source="KJcwuW7LsnLvcYnNRt8B-12" target="KJcwuW7LsnLvcYnNRt8B-10">
          <mxGeometry relative="1" as="geometry">
            <Array as="points">
              <mxPoint x="320" y="460" />
              <mxPoint x="320" y="460" />
            </Array>
          </mxGeometry>
        </mxCell>
        <mxCell id="KJcwuW7LsnLvcYnNRt8B-17" style="edgeStyle=orthogonalEdgeStyle;rounded=0;orthogonalLoop=1;jettySize=auto;html=1;entryX=0.5;entryY=1;entryDx=0;entryDy=0;" edge="1" parent="1" source="KJcwuW7LsnLvcYnNRt8B-12" target="KJcwuW7LsnLvcYnNRt8B-11">
          <mxGeometry relative="1" as="geometry" />
        </mxCell>
        <mxCell id="KJcwuW7LsnLvcYnNRt8B-26" style="edgeStyle=orthogonalEdgeStyle;rounded=0;orthogonalLoop=1;jettySize=auto;html=1;entryX=0.25;entryY=0;entryDx=0;entryDy=0;" edge="1" parent="1" source="KJcwuW7LsnLvcYnNRt8B-12" target="KJcwuW7LsnLvcYnNRt8B-23">
          <mxGeometry relative="1" as="geometry">
            <Array as="points">
              <mxPoint x="260" y="580" />
              <mxPoint x="260" y="580" />
            </Array>
          </mxGeometry>
        </mxCell>
        <mxCell id="KJcwuW7LsnLvcYnNRt8B-12" value="Проводной интерфейс" style="rounded=0;whiteSpace=wrap;html=1;" vertex="1" parent="1">
          <mxGeometry x="230" y="500" width="120" height="60" as="geometry" />
        </mxCell>
        <mxCell id="KJcwuW7LsnLvcYnNRt8B-19" value="" style="endArrow=none;dashed=1;html=1;" edge="1" parent="1">
          <mxGeometry width="50" height="50" relative="1" as="geometry">
            <mxPoint x="80" y="190" as="sourcePoint" />
            <mxPoint x="540" y="190" as="targetPoint" />
          </mxGeometry>
        </mxCell>
        <mxCell id="KJcwuW7LsnLvcYnNRt8B-20" value="" style="endArrow=none;dashed=1;html=1;" edge="1" parent="1">
          <mxGeometry width="50" height="50" relative="1" as="geometry">
            <mxPoint x="540" y="470" as="sourcePoint" />
            <mxPoint x="540" y="190" as="targetPoint" />
          </mxGeometry>
        </mxCell>
        <mxCell id="KJcwuW7LsnLvcYnNRt8B-21" value="" style="endArrow=none;dashed=1;html=1;" edge="1" parent="1">
          <mxGeometry width="50" height="50" relative="1" as="geometry">
            <mxPoint x="540" y="470" as="sourcePoint" />
            <mxPoint x="80" y="470" as="targetPoint" />
          </mxGeometry>
        </mxCell>
        <mxCell id="KJcwuW7LsnLvcYnNRt8B-22" value="" style="endArrow=none;dashed=1;html=1;" edge="1" parent="1">
          <mxGeometry width="50" height="50" relative="1" as="geometry">
            <mxPoint x="80" y="470" as="sourcePoint" />
            <mxPoint x="80" y="190" as="targetPoint" />
          </mxGeometry>
        </mxCell>
        <mxCell id="KJcwuW7LsnLvcYnNRt8B-24" style="edgeStyle=orthogonalEdgeStyle;rounded=0;orthogonalLoop=1;jettySize=auto;html=1;exitX=0.25;exitY=0;exitDx=0;exitDy=0;entryX=0.25;entryY=1;entryDx=0;entryDy=0;" edge="1" parent="1" source="KJcwuW7LsnLvcYnNRt8B-23" target="KJcwuW7LsnLvcYnNRt8B-12">
          <mxGeometry relative="1" as="geometry" />
        </mxCell>
        <mxCell id="KJcwuW7LsnLvcYnNRt8B-23" value="&lt;div&gt;Сенсоры&lt;/div&gt;" style="rounded=0;whiteSpace=wrap;html=1;" vertex="1" parent="1">
          <mxGeometry x="230" y="660" width="120" height="60" as="geometry" />
        </mxCell>
        <mxCell id="KJcwuW7LsnLvcYnNRt8B-41" style="edgeStyle=orthogonalEdgeStyle;rounded=0;orthogonalLoop=1;jettySize=auto;html=1;exitX=0.5;exitY=1;exitDx=0;exitDy=0;" edge="1" parent="1" source="KJcwuW7LsnLvcYnNRt8B-27" target="KJcwuW7LsnLvcYnNRt8B-28">
          <mxGeometry relative="1" as="geometry" />
        </mxCell>
        <mxCell id="KJcwuW7LsnLvcYnNRt8B-27" value="" style="ellipse;whiteSpace=wrap;html=1;" vertex="1" parent="1">
          <mxGeometry x="383" y="820" width="34" height="30" as="geometry" />
        </mxCell>
        <mxCell id="KJcwuW7LsnLvcYnNRt8B-43" style="edgeStyle=orthogonalEdgeStyle;rounded=0;orthogonalLoop=1;jettySize=auto;html=1;exitX=0.5;exitY=1;exitDx=0;exitDy=0;entryX=0.5;entryY=0;entryDx=0;entryDy=0;" edge="1" parent="1" source="KJcwuW7LsnLvcYnNRt8B-28" target="KJcwuW7LsnLvcYnNRt8B-31">
          <mxGeometry relative="1" as="geometry" />
        </mxCell>
        <mxCell id="KJcwuW7LsnLvcYnNRt8B-28" value="Запуск программы" style="rounded=1;whiteSpace=wrap;html=1;" vertex="1" parent="1">
          <mxGeometry x="340" y="890" width="120" height="60" as="geometry" />
        </mxCell>
        <mxCell id="KJcwuW7LsnLvcYnNRt8B-44" style="edgeStyle=orthogonalEdgeStyle;rounded=0;orthogonalLoop=1;jettySize=auto;html=1;exitX=0.5;exitY=1;exitDx=0;exitDy=0;entryX=0.5;entryY=0;entryDx=0;entryDy=0;" edge="1" parent="1" source="KJcwuW7LsnLvcYnNRt8B-31" target="KJcwuW7LsnLvcYnNRt8B-32">
          <mxGeometry relative="1" as="geometry" />
        </mxCell>
        <mxCell id="KJcwuW7LsnLvcYnNRt8B-31" value="Поиск сенсоров" style="rounded=1;whiteSpace=wrap;html=1;" vertex="1" parent="1">
          <mxGeometry x="340" y="970" width="120" height="60" as="geometry" />
        </mxCell>
        <mxCell id="KJcwuW7LsnLvcYnNRt8B-33" style="edgeStyle=orthogonalEdgeStyle;rounded=0;orthogonalLoop=1;jettySize=auto;html=1;entryX=1;entryY=0.5;entryDx=0;entryDy=0;" edge="1" parent="1" source="KJcwuW7LsnLvcYnNRt8B-32" target="KJcwuW7LsnLvcYnNRt8B-31">
          <mxGeometry relative="1" as="geometry">
            <Array as="points">
              <mxPoint x="520" y="1105" />
              <mxPoint x="520" y="1000" />
            </Array>
          </mxGeometry>
        </mxCell>
        <mxCell id="KJcwuW7LsnLvcYnNRt8B-45" style="edgeStyle=orthogonalEdgeStyle;rounded=0;orthogonalLoop=1;jettySize=auto;html=1;exitX=0.5;exitY=1;exitDx=0;exitDy=0;entryX=0.5;entryY=0;entryDx=0;entryDy=0;" edge="1" parent="1" source="KJcwuW7LsnLvcYnNRt8B-32" target="KJcwuW7LsnLvcYnNRt8B-40">
          <mxGeometry relative="1" as="geometry" />
        </mxCell>
        <mxCell id="KJcwuW7LsnLvcYnNRt8B-32" value="Количество подключенных сенсоров &amp;gt; 0" style="rhombus;whiteSpace=wrap;html=1;" vertex="1" parent="1">
          <mxGeometry x="305" y="1050" width="190" height="110" as="geometry" />
        </mxCell>
        <mxCell id="KJcwuW7LsnLvcYnNRt8B-47" style="edgeStyle=orthogonalEdgeStyle;rounded=0;orthogonalLoop=1;jettySize=auto;html=1;exitX=0.5;exitY=1;exitDx=0;exitDy=0;entryX=0.5;entryY=0;entryDx=0;entryDy=0;" edge="1" parent="1" source="KJcwuW7LsnLvcYnNRt8B-36" target="KJcwuW7LsnLvcYnNRt8B-37">
          <mxGeometry relative="1" as="geometry" />
        </mxCell>
        <mxCell id="KJcwuW7LsnLvcYnNRt8B-36" value="&lt;div&gt;Процедура&lt;/div&gt;" style="rounded=1;whiteSpace=wrap;html=1;" vertex="1" parent="1">
          <mxGeometry x="340" y="1270" width="120" height="60" as="geometry" />
        </mxCell>
        <mxCell id="KJcwuW7LsnLvcYnNRt8B-48" style="edgeStyle=orthogonalEdgeStyle;rounded=0;orthogonalLoop=1;jettySize=auto;html=1;exitX=0.5;exitY=1;exitDx=0;exitDy=0;entryX=0.5;entryY=0;entryDx=0;entryDy=0;" edge="1" parent="1" source="KJcwuW7LsnLvcYnNRt8B-37" target="KJcwuW7LsnLvcYnNRt8B-39">
          <mxGeometry relative="1" as="geometry" />
        </mxCell>
        <mxCell id="KJcwuW7LsnLvcYnNRt8B-37" value="Завершение" style="rounded=1;whiteSpace=wrap;html=1;" vertex="1" parent="1">
          <mxGeometry x="340" y="1350" width="120" height="60" as="geometry" />
        </mxCell>
        <mxCell id="KJcwuW7LsnLvcYnNRt8B-39" value="" style="ellipse;whiteSpace=wrap;html=1;" vertex="1" parent="1">
          <mxGeometry x="383" y="1430" width="34" height="30" as="geometry" />
        </mxCell>
        <mxCell id="KJcwuW7LsnLvcYnNRt8B-46" style="edgeStyle=orthogonalEdgeStyle;rounded=0;orthogonalLoop=1;jettySize=auto;html=1;exitX=0.5;exitY=1;exitDx=0;exitDy=0;entryX=0.5;entryY=0;entryDx=0;entryDy=0;" edge="1" parent="1" source="KJcwuW7LsnLvcYnNRt8B-40" target="KJcwuW7LsnLvcYnNRt8B-36">
          <mxGeometry relative="1" as="geometry" />
        </mxCell>
        <mxCell id="KJcwuW7LsnLvcYnNRt8B-40" value="Конфигурация сенсоров" style="rounded=1;whiteSpace=wrap;html=1;" vertex="1" parent="1">
          <mxGeometry x="340" y="1190" width="120" height="60" as="geometry" />
        </mxCell>
        <mxCell id="KJcwuW7LsnLvcYnNRt8B-49" value="Нет" style="text;html=1;strokeColor=none;fillColor=none;align=center;verticalAlign=middle;whiteSpace=wrap;rounded=0;" vertex="1" parent="1">
          <mxGeometry x="530" y="1040" width="40" height="20" as="geometry" />
        </mxCell>
        <mxCell id="KJcwuW7LsnLvcYnNRt8B-50" value="Да" style="text;html=1;strokeColor=none;fillColor=none;align=center;verticalAlign=middle;whiteSpace=wrap;rounded=0;" vertex="1" parent="1">
          <mxGeometry x="420" y="1160" width="40" height="20" as="geometry" />
        </mxCell>
      </root>
    </mxGraphModel>
  </diagram>
</mxfile>
